        <!-- the follow-up GuestRoom elements list the specific
             rooms in the category -->

        <GuestRoom Code="DZ">
          <TypeRoom RoomID="101"/>
        </GuestRoom>

        <GuestRoom Code="DZ">
          <TypeRoom RoomID="102"/>
        </GuestRoom>
