<OTA_HotelDescriptiveInfoRQ xmlns:xsi="http://www.w3.org/2001/XMLSchema-instance"
                            xmlns="http://www.opentravel.org/OTA/2003/05"
                            Version="3.000">

    <HotelDescriptiveInfos>
        <HotelDescriptiveInfo HotelCode="123" HotelName="Frangart Inn"/>
    </HotelDescriptiveInfos>

</OTA_HotelDescriptiveInfoRQ>
